%YAML 1.1
%TAG !u! tag:unity3d.com,2011:
--- !u!74 &7400000
AnimationClip:
  m_ObjectHideFlags: 0
  m_PrefabParentObject: {fileID: 0}
  m_PrefabInternal: {fileID: 0}
  m_Name: refl probs
  serializedVersion: 6
  m_Legacy: 0
  m_Compressed: 0
  m_UseHighQualityCurve: 1
  m_RotationCurves: []
  m_CompressedRotationCurves: []
  m_EulerCurves: []
  m_PositionCurves:
  - curve:
      serializedVersion: 2
      m_Curve:
      - serializedVersion: 2
        time: 0
        value: {x: -2.4758687, y: -0.8708895, z: 2.4903426}
        inSlope: {x: 0, y: 0.8208895, z: 0}
        outSlope: {x: 0, y: 0.8208895, z: 0}
        tangentMode: 0
      - serializedVersion: 2
        time: 1
        value: {x: -2.4758687, y: -0.05, z: 2.4903426}
        inSlope: {x: 0, y: -0.63955534, z: 0}
        outSlope: {x: 0, y: -0.63955534, z: 0}
        tangentMode: 0
      - serializedVersion: 2
        time: 2
        value: {x: -2.4758687, y: -2.15, z: 2.4903426}
        inSlope: {x: 0, y: -0.41044474, z: 0}
        outSlope: {x: 0, y: -0.41044474, z: 0}
        tangentMode: 0
      - serializedVersion: 2
        time: 3
        value: {x: -2.4758687, y: -0.8708895, z: 2.4903426}
        inSlope: {x: 0, y: 1.2791107, z: 0}
        outSlope: {x: 0, y: 1.2791107, z: 0}
        tangentMode: 0
      m_PreInfinity: 2
      m_PostInfinity: 2
      m_RotationOrder: 4
    path: Cube
  - curve:
      serializedVersion: 2
      m_Curve:
      - serializedVersion: 2
        time: 0
        value: {x: 0.65013146, y: -1.0908895, z: 2.6033428}
        inSlope: {x: 0, y: -0.91911054, z: 0}
        outSlope: {x: 0, y: -0.91911054, z: 0}
        tangentMode: 0
      - serializedVersion: 2
        time: 1
        value: {x: 0.65013146, y: -2.01, z: 2.6033428}
        inSlope: {x: 0, y: 0.41544473, z: 0}
        outSlope: {x: 0, y: 0.41544473, z: 0}
        tangentMode: 0
      - serializedVersion: 2
        time: 2
        value: {x: 0.65013146, y: -0.26, z: 2.6033428}
        inSlope: {x: 0, y: 0.45955527, z: 0}
        outSlope: {x: 0, y: 0.45955527, z: 0}
        tangentMode: 0
      - serializedVersion: 2
        time: 3
        value: {x: 0.65013146, y: -1.0908895, z: 2.6033428}
        inSlope: {x: 0, y: -0.83088946, z: 0}
        outSlope: {x: 0, y: -0.83088946, z: 0}
        tangentMode: 0
      m_PreInfinity: 2
      m_PostInfinity: 2
      m_RotationOrder: 4
    path: Cylinder
  m_ScaleCurves: []
  m_FloatCurves:
  - curve:
      serializedVersion: 2
      m_Curve:
      - serializedVersion: 2
        time: 0
        value: 0
        inSlope: 0.30882353
        outSlope: 0.30882353
        tangentMode: 34
      - serializedVersion: 2
        time: 1
        value: 0.30882353
        inSlope: 0.45172417
        outSlope: 0.45172417
        tangentMode: 34
      - serializedVersion: 2
        time: 2
        value: 0.90344834
        inSlope: -0.15441176
        outSlope: -0.15441176
        tangentMode: 34
      - serializedVersion: 2
        time: 3
        value: 0
        inSlope: -0.90344834
        outSlope: -0.90344834
        tangentMode: 34
      m_PreInfinity: 2
      m_PostInfinity: 2
      m_RotationOrder: 4
    attribute: material._Color.r
    path: Cube
    classID: 23
    script: {fileID: 0}
  - curve:
      serializedVersion: 2
      m_Curve:
      - serializedVersion: 2
        time: 0
        value: 1
        inSlope: -0.6634889
        outSlope: -0.6634889
        tangentMode: 34
      - serializedVersion: 2
        time: 1
        value: 0.33651108
        inSlope: 0
        outSlope: 0
        tangentMode: 34
      - serializedVersion: 2
        time: 2
        value: 1
        inSlope: 0.33174446
        outSlope: 0.33174446
        tangentMode: 34
      - serializedVersion: 2
        time: 3
        value: 1
        inSlope: 0
        outSlope: 0
        tangentMode: 34
      m_PreInfinity: 2
      m_PostInfinity: 2
      m_RotationOrder: 4
    attribute: material._Color.g
    path: Cube
    classID: 23
    script: {fileID: 0}
  - curve:
      serializedVersion: 2
      m_Curve:
      - serializedVersion: 2
        time: 0
        value: 0.213793
        inSlope: 0.40385407
        outSlope: 0.40385407
        tangentMode: 34
      - serializedVersion: 2
        time: 1
        value: 0.61764705
        inSlope: -0.10689649
        outSlope: -0.10689649
        tangentMode: 34
      - serializedVersion: 2
        time: 2
        value: 0
        inSlope: -0.20192704
        outSlope: -0.20192704
        tangentMode: 34
      - serializedVersion: 2
        time: 3
        value: 0.213793
        inSlope: 0.213793
        outSlope: 0.213793
        tangentMode: 34
      m_PreInfinity: 2
      m_PostInfinity: 2
      m_RotationOrder: 4
    attribute: material._Color.b
    path: Cube
    classID: 23
    script: {fileID: 0}
  - curve:
      serializedVersion: 2
      m_Curve:
      - serializedVersion: 2
        time: 0
        value: 1
        inSlope: 0
        outSlope: 0
        tangentMode: 34
      - serializedVersion: 2
        time: 1
        value: 1
        inSlope: 0
        outSlope: 0
        tangentMode: 34
      - serializedVersion: 2
        time: 2
        value: 1
        inSlope: 0
        outSlope: 0
        tangentMode: 34
      - serializedVersion: 2
        time: 3
        value: 1
        inSlope: 0
        outSlope: 0
        tangentMode: 34
      m_PreInfinity: 2
      m_PostInfinity: 2
      m_RotationOrder: 4
    attribute: material._Color.a
    path: Cube
    classID: 23
    script: {fileID: 0}
  - curve:
      serializedVersion: 2
      m_Curve:
      - serializedVersion: 2
        time: 0
        value: 0
        inSlope: 0.3897059
        outSlope: 0.3897059
        tangentMode: 34
      - serializedVersion: 2
        time: 1
        value: 0.3897059
        inSlope: 0.5
        outSlope: 0.5
        tangentMode: 34
      - serializedVersion: 2
        time: 2
        value: 1
        inSlope: -0.19485295
        outSlope: -0.19485295
        tangentMode: 34
      - serializedVersion: 2
        time: 3
        value: 0
        inSlope: -1
        outSlope: -1
        tangentMode: 34
      m_PreInfinity: 2
      m_PostInfinity: 2
      m_RotationOrder: 4
    attribute: material._Color.r
    path: Cylinder
    classID: 23
    script: {fileID: 0}
  - curve:
      serializedVersion: 2
      m_Curve:
      - serializedVersion: 2
        time: 0
        value: 1
        inSlope: -0.62104464
        outSlope: -0.62104464
        tangentMode: 34
      - serializedVersion: 2
        time: 1
        value: 0.3789554
        inSlope: -0.3655173
        outSlope: -0.3655173
        tangentMode: 34
      - serializedVersion: 2
        time: 2
        value: 0.26896545
        inSlope: 0.3105223
        outSlope: 0.3105223
        tangentMode: 34
      - serializedVersion: 2
        time: 3
        value: 1
        inSlope: 0.7310345
        outSlope: 0.7310345
        tangentMode: 34
      m_PreInfinity: 2
      m_PostInfinity: 2
      m_RotationOrder: 4
    attribute: material._Color.g
    path: Cylinder
    classID: 23
    script: {fileID: 0}
  - curve:
      serializedVersion: 2
      m_Curve:
      - serializedVersion: 2
        time: 0
        value: 0.213793
        inSlope: -0.213793
        outSlope: -0.213793
        tangentMode: 34
      - serializedVersion: 2
        time: 1
        value: 0
        inSlope: -0.1068965
        outSlope: -0.1068965
        tangentMode: 34
      - serializedVersion: 2
        time: 2
        value: 0
        inSlope: 0.1068965
        outSlope: 0.1068965
        tangentMode: 34
      - serializedVersion: 2
        time: 3
        value: 0.213793
        inSlope: 0.213793
        outSlope: 0.213793
        tangentMode: 34
      m_PreInfinity: 2
      m_PostInfinity: 2
      m_RotationOrder: 4
    attribute: material._Color.b
    path: Cylinder
    classID: 23
    script: {fileID: 0}
  - curve:
      serializedVersion: 2
      m_Curve:
      - serializedVersion: 2
        time: 0
        value: 1
        inSlope: 0
        outSlope: 0
        tangentMode: 34
      - serializedVersion: 2
        time: 1
        value: 1
        inSlope: 0
        outSlope: 0
        tangentMode: 34
      - serializedVersion: 2
        time: 2
        value: 1
        inSlope: 0
        outSlope: 0
        tangentMode: 34
      - serializedVersion: 2
        time: 3
        value: 1
        inSlope: 0
        outSlope: 0
        tangentMode: 34
      m_PreInfinity: 2
      m_PostInfinity: 2
      m_RotationOrder: 4
    attribute: material._Color.a
    path: Cylinder
    classID: 23
    script: {fileID: 0}
  m_PPtrCurves: []
  m_SampleRate: 5
  m_WrapMode: 0
  m_Bounds:
    m_Center: {x: 0, y: 0, z: 0}
    m_Extent: {x: 0, y: 0, z: 0}
  m_ClipBindingConstant:
    genericBindings:
    - serializedVersion: 2
      path: 2429296262
      attribute: 1
      script: {fileID: 0}
      typeID: 4
      customType: 0
      isPPtrCurve: 0
    - serializedVersion: 2
      path: 1651653052
      attribute: 1
      script: {fileID: 0}
      typeID: 4
      customType: 0
      isPPtrCurve: 0
    - serializedVersion: 2
      path: 2429296262
      attribute: 1303350129
      script: {fileID: 0}
      typeID: 23
      customType: 22
      isPPtrCurve: 0
    - serializedVersion: 2
      path: 2429296262
      attribute: 1571785585
      script: {fileID: 0}
      typeID: 23
      customType: 22
      isPPtrCurve: 0
    - serializedVersion: 2
      path: 2429296262
      attribute: 1840221041
      script: {fileID: 0}
      typeID: 23
      customType: 22
      isPPtrCurve: 0
    - serializedVersion: 2
      path: 1651653052
      attribute: 1303350129
      script: {fileID: 0}
      typeID: 23
      customType: 22
      isPPtrCurve: 0
    - serializedVersion: 2
      path: 1651653052
      attribute: 1571785585
      script: {fileID: 0}
      typeID: 23
      customType: 22
      isPPtrCurve: 0
    - serializedVersion: 2
      path: 1651653052
      attribute: 1840221041
      script: {fileID: 0}
      typeID: 23
      customType: 22
      isPPtrCurve: 0
    - serializedVersion: 2
      path: 2429296262
      attribute: 2108656497
      script: {fileID: 0}
      typeID: 23
      customType: 22
      isPPtrCurve: 0
    - serializedVersion: 2
      path: 1651653052
      attribute: 2108656497
      script: {fileID: 0}
      typeID: 23
      customType: 22
      isPPtrCurve: 0
    pptrCurveMapping: []
  m_AnimationClipSettings:
    serializedVersion: 2
    m_AdditiveReferencePoseClip: {fileID: 0}
    m_AdditiveReferencePoseTime: 0
    m_StartTime: 0
    m_StopTime: 3
    m_OrientationOffsetY: 0
    m_Level: 0
    m_CycleOffset: 0
    m_HasAdditiveReferencePose: 0
    m_LoopTime: 1
    m_LoopBlend: 0
    m_LoopBlendOrientation: 0
    m_LoopBlendPositionY: 0
    m_LoopBlendPositionXZ: 0
    m_KeepOriginalOrientation: 0
    m_KeepOriginalPositionY: 1
    m_KeepOriginalPositionXZ: 0
    m_HeightFromFeet: 0
    m_Mirror: 0
  m_EditorCurves:
  - curve:
      serializedVersion: 2
      m_Curve:
      - serializedVersion: 2
        time: 0
        value: -2.4758687
        inSlope: 0
        outSlope: 0
        tangentMode: 34
      - serializedVersion: 2
        time: 1
        value: -2.4758687
        inSlope: 0
        outSlope: 0
        tangentMode: 34
      - serializedVersion: 2
        time: 2
        value: -2.4758687
        inSlope: 0
        outSlope: 0
        tangentMode: 34
      - serializedVersion: 2
        time: 3
        value: -2.4758687
        inSlope: 0
        outSlope: 0
        tangentMode: 34
      m_PreInfinity: 2
      m_PostInfinity: 2
      m_RotationOrder: 4
    attribute: m_LocalPosition.x
    path: Cube
    classID: 4
    script: {fileID: 0}
  - curve:
      serializedVersion: 2
      m_Curve:
      - serializedVersion: 2
        time: 0
        value: -0.8708895
        inSlope: 0.8208895
        outSlope: 0.8208895
        tangentMode: 34
      - serializedVersion: 2
        time: 1
        value: -0.05
        inSlope: -0.63955534
        outSlope: -0.63955534
        tangentMode: 34
      - serializedVersion: 2
        time: 2
        value: -2.15
        inSlope: -0.41044474
        outSlope: -0.41044474
        tangentMode: 34
      - serializedVersion: 2
        time: 3
        value: -0.8708895
        inSlope: 1.2791107
        outSlope: 1.2791107
        tangentMode: 34
      m_PreInfinity: 2
      m_PostInfinity: 2
      m_RotationOrder: 4
    attribute: m_LocalPosition.y
    path: Cube
    classID: 4
    script: {fileID: 0}
  - curve:
      serializedVersion: 2
      m_Curve:
      - serializedVersion: 2
        time: 0
        value: 2.4903426
        inSlope: 0
        outSlope: 0
        tangentMode: 34
      - serializedVersion: 2
        time: 1
        value: 2.4903426
        inSlope: 0
        outSlope: 0
        tangentMode: 34
      - serializedVersion: 2
        time: 2
        value: 2.4903426
        inSlope: 0
        outSlope: 0
        tangentMode: 34
      - serializedVersion: 2
        time: 3
        value: 2.4903426
        inSlope: 0
        outSlope: 0
        tangentMode: 34
      m_PreInfinity: 2
      m_PostInfinity: 2
      m_RotationOrder: 4
    attribute: m_LocalPosition.z
    path: Cube
    classID: 4
    script: {fileID: 0}
  - curve:
      serializedVersion: 2
      m_Curve:
      - serializedVersion: 2
        time: 0
        value: 0.65013146
        inSlope: 0
        outSlope: 0
        tangentMode: 34
      - serializedVersion: 2
        time: 1
        value: 0.65013146
        inSlope: 0
        outSlope: 0
        tangentMode: 34
      - serializedVersion: 2
        time: 2
        value: 0.65013146
        inSlope: 0
        outSlope: 0
        tangentMode: 34
      - serializedVersion: 2
        time: 3
        value: 0.65013146
        inSlope: 0
        outSlope: 0
        tangentMode: 34
      m_PreInfinity: 2
      m_PostInfinity: 2
      m_RotationOrder: 4
    attribute: m_LocalPosition.x
    path: Cylinder
    classID: 4
    script: {fileID: 0}
  - curve:
      serializedVersion: 2
      m_Curve:
      - serializedVersion: 2
        time: 0
        value: -1.0908895
        inSlope: -0.91911054
        outSlope: -0.91911054
        tangentMode: 34
      - serializedVersion: 2
        time: 1
        value: -2.01
        inSlope: 0.41544473
        outSlope: 0.41544473
        tangentMode: 34
      - serializedVersion: 2
        time: 2
        value: -0.26
        inSlope: 0.45955527
        outSlope: 0.45955527
        tangentMode: 34
      - serializedVersion: 2
        time: 3
        value: -1.0908895
        inSlope: -0.83088946
        outSlope: -0.83088946
        tangentMode: 34
      m_PreInfinity: 2
      m_PostInfinity: 2
      m_RotationOrder: 4
    attribute: m_LocalPosition.y
    path: Cylinder
    classID: 4
    script: {fileID: 0}
  - curve:
      serializedVersion: 2
      m_Curve:
      - serializedVersion: 2
        time: 0
        value: 2.6033428
        inSlope: 0
        outSlope: 0
        tangentMode: 34
      - serializedVersion: 2
        time: 1
        value: 2.6033428
        inSlope: 0
        outSlope: 0
        tangentMode: 34
      - serializedVersion: 2
        time: 2
        value: 2.6033428
        inSlope: 0
        outSlope: 0
        tangentMode: 34
      - serializedVersion: 2
        time: 3
        value: 2.6033428
        inSlope: 0
        outSlope: 0
        tangentMode: 34
      m_PreInfinity: 2
      m_PostInfinity: 2
      m_RotationOrder: 4
    attribute: m_LocalPosition.z
    path: Cylinder
    classID: 4
    script: {fileID: 0}
  - curve:
      serializedVersion: 2
      m_Curve:
      - serializedVersion: 2
        time: 0
        value: 0
        inSlope: 0.30882353
        outSlope: 0.30882353
        tangentMode: 34
      - serializedVersion: 2
        time: 1
        value: 0.30882353
        inSlope: 0.45172417
        outSlope: 0.45172417
        tangentMode: 34
      - serializedVersion: 2
        time: 2
        value: 0.90344834
        inSlope: -0.15441176
        outSlope: -0.15441176
        tangentMode: 34
      - serializedVersion: 2
        time: 3
        value: 0
        inSlope: -0.90344834
        outSlope: -0.90344834
        tangentMode: 34
      m_PreInfinity: 2
      m_PostInfinity: 2
      m_RotationOrder: 4
    attribute: material._Color.r
    path: Cube
    classID: 23
    script: {fileID: 0}
  - curve:
      serializedVersion: 2
      m_Curve:
      - serializedVersion: 2
        time: 0
        value: 1
        inSlope: -0.6634889
        outSlope: -0.6634889
        tangentMode: 34
      - serializedVersion: 2
        time: 1
        value: 0.33651108
        inSlope: 0
        outSlope: 0
        tangentMode: 34
      - serializedVersion: 2
        time: 2
        value: 1
        inSlope: 0.33174446
        outSlope: 0.33174446
        tangentMode: 34
      - serializedVersion: 2
        time: 3
        value: 1
        inSlope: 0
        outSlope: 0
        tangentMode: 34
      m_PreInfinity: 2
      m_PostInfinity: 2
      m_RotationOrder: 4
    attribute: material._Color.g
    path: Cube
    classID: 23
    script: {fileID: 0}
  - curve:
      serializedVersion: 2
      m_Curve:
      - serializedVersion: 2
        time: 0
        value: 0.213793
        inSlope: 0.40385407
        outSlope: 0.40385407
        tangentMode: 34
      - serializedVersion: 2
        time: 1
        value: 0.61764705
        inSlope: -0.10689649
        outSlope: -0.10689649
        tangentMode: 34
      - serializedVersion: 2
        time: 2
        value: 0
        inSlope: -0.20192704
        outSlope: -0.20192704
        tangentMode: 34
      - serializedVersion: 2
        time: 3
        value: 0.213793
        inSlope: 0.213793
        outSlope: 0.213793
        tangentMode: 34
      m_PreInfinity: 2
      m_PostInfinity: 2
      m_RotationOrder: 4
    attribute: material._Color.b
    path: Cube
    classID: 23
    script: {fileID: 0}
  - curve:
      serializedVersion: 2
      m_Curve:
      - serializedVersion: 2
        time: 0
        value: 1
        inSlope: 0
        outSlope: 0
        tangentMode: 34
      - serializedVersion: 2
        time: 1
        value: 1
        inSlope: 0
        outSlope: 0
        tangentMode: 34
      - serializedVersion: 2
        time: 2
        value: 1
        inSlope: 0
        outSlope: 0
        tangentMode: 34
      - serializedVersion: 2
        time: 3
        value: 1
        inSlope: 0
        outSlope: 0
        tangentMode: 34
      m_PreInfinity: 2
      m_PostInfinity: 2
      m_RotationOrder: 4
    attribute: material._Color.a
    path: Cube
    classID: 23
    script: {fileID: 0}
  - curve:
      serializedVersion: 2
      m_Curve:
      - serializedVersion: 2
        time: 0
        value: 0
        inSlope: 0.3897059
        outSlope: 0.3897059
        tangentMode: 34
      - serializedVersion: 2
        time: 1
        value: 0.3897059
        inSlope: 0.5
        outSlope: 0.5
        tangentMode: 34
      - serializedVersion: 2
        time: 2
        value: 1
        inSlope: -0.19485295
        outSlope: -0.19485295
        tangentMode: 34
      - serializedVersion: 2
        time: 3
        value: 0
        inSlope: -1
        outSlope: -1
        tangentMode: 34
      m_PreInfinity: 2
      m_PostInfinity: 2
      m_RotationOrder: 4
    attribute: material._Color.r
    path: Cylinder
    classID: 23
    script: {fileID: 0}
  - curve:
      serializedVersion: 2
      m_Curve:
      - serializedVersion: 2
        time: 0
        value: 1
        inSlope: -0.62104464
        outSlope: -0.62104464
        tangentMode: 34
      - serializedVersion: 2
        time: 1
        value: 0.3789554
        inSlope: -0.3655173
        outSlope: -0.3655173
        tangentMode: 34
      - serializedVersion: 2
        time: 2
        value: 0.26896545
        inSlope: 0.3105223
        outSlope: 0.3105223
        tangentMode: 34
      - serializedVersion: 2
        time: 3
        value: 1
        inSlope: 0.7310345
        outSlope: 0.7310345
        tangentMode: 34
      m_PreInfinity: 2
      m_PostInfinity: 2
      m_RotationOrder: 4
    attribute: material._Color.g
    path: Cylinder
    classID: 23
    script: {fileID: 0}
  - curve:
      serializedVersion: 2
      m_Curve:
      - serializedVersion: 2
        time: 0
        value: 0.213793
        inSlope: -0.213793
        outSlope: -0.213793
        tangentMode: 34
      - serializedVersion: 2
        time: 1
        value: 0
        inSlope: -0.1068965
        outSlope: -0.1068965
        tangentMode: 34
      - serializedVersion: 2
        time: 2
        value: 0
        inSlope: 0.1068965
        outSlope: 0.1068965
        tangentMode: 34
      - serializedVersion: 2
        time: 3
        value: 0.213793
        inSlope: 0.213793
        outSlope: 0.213793
        tangentMode: 34
      m_PreInfinity: 2
      m_PostInfinity: 2
      m_RotationOrder: 4
    attribute: material._Color.b
    path: Cylinder
    classID: 23
    script: {fileID: 0}
  - curve:
      serializedVersion: 2
      m_Curve:
      - serializedVersion: 2
        time: 0
        value: 1
        inSlope: 0
        outSlope: 0
        tangentMode: 34
      - serializedVersion: 2
        time: 1
        value: 1
        inSlope: 0
        outSlope: 0
        tangentMode: 34
      - serializedVersion: 2
        time: 2
        value: 1
        inSlope: 0
        outSlope: 0
        tangentMode: 34
      - serializedVersion: 2
        time: 3
        value: 1
        inSlope: 0
        outSlope: 0
        tangentMode: 34
      m_PreInfinity: 2
      m_PostInfinity: 2
      m_RotationOrder: 4
    attribute: material._Color.a
    path: Cylinder
    classID: 23
    script: {fileID: 0}
  m_EulerEditorCurves: []
  m_HasGenericRootTransform: 0
  m_HasMotionFloatCurves: 0
  m_GenerateMotionCurves: 0
  m_Events: []
