%YAML 1.1
%TAG !u! tag:unity3d.com,2011:
--- !u!74 &7400000
AnimationClip:
  m_ObjectHideFlags: 0
  m_PrefabParentObject: {fileID: 0}
  m_PrefabInternal: {fileID: 0}
  m_Name: Rotate - rotor
  serializedVersion: 6
  m_Legacy: 0
  m_Compressed: 0
  m_UseHighQualityCurve: 1
  m_RotationCurves:
  - curve:
      serializedVersion: 2
      m_Curve:
      - serializedVersion: 2
        time: 0
        value: {x: -0, y: -0, z: -0, w: -1}
        inSlope: {x: 0, y: 0, z: 2.871788, w: 0.3486979}
        outSlope: {x: 0, y: 0, z: 2.871788, w: 0.3486979}
        tangentMode: 0
      - serializedVersion: 2
        time: 0.083333336
        value: {x: -0, y: -0, z: 0.23931567, w: -0.97094184}
        inSlope: {x: 0, y: 0, z: 2.7883391, w: 0.68726385}
        outSlope: {x: 0, y: 0, z: 2.7883391, w: 0.68726385}
        tangentMode: 0
      - serializedVersion: 2
        time: 0.16666667
        value: {x: -0, y: -0, z: 0.4647232, w: -0.885456}
        inSlope: {x: 0, y: 0, z: 2.5428424, w: 1.3345869}
        outSlope: {x: 0, y: 0, z: 2.5428424, w: 1.3345869}
        tangentMode: 0
      - serializedVersion: 2
        time: 0.25
        value: {x: -0, y: -0, z: 0.6631227, w: -0.7485107}
        inSlope: {x: 0, y: 0, z: 2.1495638, w: 1.9043479}
        outSlope: {x: 0, y: 0, z: 2.1495638, w: 1.9043479}
        tangentMode: 0
      - serializedVersion: 2
        time: 0.33333334
        value: {x: -0, y: -0, z: 0.82298386, w: -0.5680647}
        inSlope: {x: 0, y: 0, z: 1.6313612, w: 2.3634348}
        outSlope: {x: 0, y: 0, z: 1.6313612, w: 2.3634348}
        tangentMode: 0
      - serializedVersion: 2
        time: 0.4166667
        value: {x: -0, y: -0, z: 0.9350163, w: -0.35460487}
        inSlope: {x: 0, y: 0, z: 1.01835, w: 2.6851687}
        outSlope: {x: 0, y: 0, z: 1.01835, w: 2.6851687}
        tangentMode: 0
      - serializedVersion: 2
        time: 0.5
        value: {x: -0, y: -0, z: 0.99270886, w: -0.120536566}
        inSlope: {x: 0, y: 0, z: 0.3461556, w: 2.8508506}
        outSlope: {x: 0, y: 0, z: 0.3461556, w: 2.8508506}
        tangentMode: 0
      - serializedVersion: 2
        time: 0.5833333
        value: {x: -0, y: -0, z: 0.99270886, w: 0.120536774}
        inSlope: {x: 0, y: 0, z: -0.3461556, w: 2.8508492}
        outSlope: {x: 0, y: 0, z: -0.3461556, w: 2.8508492}
        tangentMode: 0
      - serializedVersion: 2
        time: 0.6666666
        value: {x: -0, y: -0, z: 0.9350163, w: 0.35460484}
        inSlope: {x: 0, y: 0, z: -1.0183499, w: 2.6851683}
        outSlope: {x: 0, y: 0, z: -1.0183499, w: 2.6851683}
        tangentMode: 0
      - serializedVersion: 2
        time: 0.74999994
        value: {x: -0, y: -0, z: 0.8229839, w: 0.5680647}
        inSlope: {x: 0, y: 0, z: -1.631361, w: 2.3634353}
        outSlope: {x: 0, y: 0, z: -1.631361, w: 2.3634353}
        tangentMode: 0
      - serializedVersion: 2
        time: 0.83333325
        value: {x: -0, y: -0, z: 0.66312283, w: 0.7485106}
        inSlope: {x: 0, y: 0, z: -2.1495633, w: 1.9043474}
        outSlope: {x: 0, y: 0, z: -2.1495633, w: 1.9043474}
        tangentMode: 0
      - serializedVersion: 2
        time: 0.91666657
        value: {x: -0, y: -0, z: 0.46472347, w: 0.88545585}
        inSlope: {x: 0, y: 0, z: -2.5428433, w: 1.3345878}
        outSlope: {x: 0, y: 0, z: -2.5428433, w: 1.3345878}
        tangentMode: 0
      - serializedVersion: 2
        time: 0.9999999
        value: {x: -0, y: -0, z: 0.23931567, w: 0.97094184}
        inSlope: {x: 0, y: 0, z: -2.7883403, w: 0.6872647}
        outSlope: {x: 0, y: 0, z: -2.7883403, w: 0.6872647}
        tangentMode: 0
      - serializedVersion: 2
        time: 1.0833334
        value: {x: -0, y: -0, z: -0.00000032584137, w: 1}
        inSlope: {x: 0, y: 0, z: -2.8717866, w: 0.34869725}
        outSlope: {x: 0, y: 0, z: -2.8717866, w: 0.34869725}
        tangentMode: 0
      m_PreInfinity: 2
      m_PostInfinity: 2
      m_RotationOrder: 4
    path: 
  m_CompressedRotationCurves: []
  m_EulerCurves: []
  m_PositionCurves: []
  m_ScaleCurves: []
  m_FloatCurves: []
  m_PPtrCurves: []
  m_SampleRate: 12
  m_WrapMode: 0
  m_Bounds:
    m_Center: {x: 0, y: 0, z: 0}
    m_Extent: {x: 0, y: 0, z: 0}
  m_ClipBindingConstant:
    genericBindings:
    - serializedVersion: 2
      path: 0
      attribute: 2
      script: {fileID: 0}
      typeID: 4
      customType: 0
      isPPtrCurve: 0
    pptrCurveMapping: []
  m_AnimationClipSettings:
    serializedVersion: 2
    m_AdditiveReferencePoseClip: {fileID: 0}
    m_AdditiveReferencePoseTime: 0
    m_StartTime: 0
    m_StopTime: 1.0833334
    m_OrientationOffsetY: 0
    m_Level: 0
    m_CycleOffset: 0
    m_HasAdditiveReferencePose: 0
    m_LoopTime: 1
    m_LoopBlend: 0
    m_LoopBlendOrientation: 0
    m_LoopBlendPositionY: 0
    m_LoopBlendPositionXZ: 0
    m_KeepOriginalOrientation: 0
    m_KeepOriginalPositionY: 1
    m_KeepOriginalPositionXZ: 0
    m_HeightFromFeet: 0
    m_Mirror: 0
  m_EditorCurves:
  - curve:
      serializedVersion: 2
      m_Curve:
      - serializedVersion: 2
        time: 0
        value: -0
        inSlope: 0
        outSlope: 0
        tangentMode: 0
      - serializedVersion: 2
        time: 0.083333336
        value: -0
        inSlope: 0
        outSlope: 0
        tangentMode: 0
      - serializedVersion: 2
        time: 0.16666667
        value: -0
        inSlope: 0
        outSlope: 0
        tangentMode: 0
      - serializedVersion: 2
        time: 0.25
        value: -0
        inSlope: 0
        outSlope: 0
        tangentMode: 0
      - serializedVersion: 2
        time: 0.33333334
        value: -0
        inSlope: 0
        outSlope: 0
        tangentMode: 0
      - serializedVersion: 2
        time: 0.4166667
        value: -0
        inSlope: 0
        outSlope: 0
        tangentMode: 0
      - serializedVersion: 2
        time: 0.5
        value: -0
        inSlope: 0
        outSlope: 0
        tangentMode: 0
      - serializedVersion: 2
        time: 0.5833333
        value: -0
        inSlope: 0
        outSlope: 0
        tangentMode: 0
      - serializedVersion: 2
        time: 0.6666666
        value: -0
        inSlope: 0
        outSlope: 0
        tangentMode: 0
      - serializedVersion: 2
        time: 0.74999994
        value: -0
        inSlope: 0
        outSlope: 0
        tangentMode: 0
      - serializedVersion: 2
        time: 0.83333325
        value: -0
        inSlope: 0
        outSlope: 0
        tangentMode: 0
      - serializedVersion: 2
        time: 0.91666657
        value: -0
        inSlope: 0
        outSlope: 0
        tangentMode: 0
      - serializedVersion: 2
        time: 0.9999999
        value: -0
        inSlope: 0
        outSlope: 0
        tangentMode: 0
      - serializedVersion: 2
        time: 1.0833334
        value: -0
        inSlope: 0
        outSlope: 0
        tangentMode: 0
      m_PreInfinity: 2
      m_PostInfinity: 2
      m_RotationOrder: 4
    attribute: m_LocalRotation.x
    path: 
    classID: 4
    script: {fileID: 0}
  - curve:
      serializedVersion: 2
      m_Curve:
      - serializedVersion: 2
        time: 0
        value: -0
        inSlope: 0
        outSlope: 0
        tangentMode: 0
      - serializedVersion: 2
        time: 0.083333336
        value: -0
        inSlope: 0
        outSlope: 0
        tangentMode: 0
      - serializedVersion: 2
        time: 0.16666667
        value: -0
        inSlope: 0
        outSlope: 0
        tangentMode: 0
      - serializedVersion: 2
        time: 0.25
        value: -0
        inSlope: 0
        outSlope: 0
        tangentMode: 0
      - serializedVersion: 2
        time: 0.33333334
        value: -0
        inSlope: 0
        outSlope: 0
        tangentMode: 0
      - serializedVersion: 2
        time: 0.4166667
        value: -0
        inSlope: 0
        outSlope: 0
        tangentMode: 0
      - serializedVersion: 2
        time: 0.5
        value: -0
        inSlope: 0
        outSlope: 0
        tangentMode: 0
      - serializedVersion: 2
        time: 0.5833333
        value: -0
        inSlope: 0
        outSlope: 0
        tangentMode: 0
      - serializedVersion: 2
        time: 0.6666666
        value: -0
        inSlope: 0
        outSlope: 0
        tangentMode: 0
      - serializedVersion: 2
        time: 0.74999994
        value: -0
        inSlope: 0
        outSlope: 0
        tangentMode: 0
      - serializedVersion: 2
        time: 0.83333325
        value: -0
        inSlope: 0
        outSlope: 0
        tangentMode: 0
      - serializedVersion: 2
        time: 0.91666657
        value: -0
        inSlope: 0
        outSlope: 0
        tangentMode: 0
      - serializedVersion: 2
        time: 0.9999999
        value: -0
        inSlope: 0
        outSlope: 0
        tangentMode: 0
      - serializedVersion: 2
        time: 1.0833334
        value: -0
        inSlope: 0
        outSlope: 0
        tangentMode: 0
      m_PreInfinity: 2
      m_PostInfinity: 2
      m_RotationOrder: 4
    attribute: m_LocalRotation.y
    path: 
    classID: 4
    script: {fileID: 0}
  - curve:
      serializedVersion: 2
      m_Curve:
      - serializedVersion: 2
        time: 0
        value: -0
        inSlope: 2.871788
        outSlope: 2.871788
        tangentMode: 0
      - serializedVersion: 2
        time: 0.083333336
        value: 0.23931567
        inSlope: 2.7883391
        outSlope: 2.7883391
        tangentMode: 0
      - serializedVersion: 2
        time: 0.16666667
        value: 0.4647232
        inSlope: 2.5428424
        outSlope: 2.5428424
        tangentMode: 0
      - serializedVersion: 2
        time: 0.25
        value: 0.6631227
        inSlope: 2.1495638
        outSlope: 2.1495638
        tangentMode: 0
      - serializedVersion: 2
        time: 0.33333334
        value: 0.82298386
        inSlope: 1.6313612
        outSlope: 1.6313612
        tangentMode: 0
      - serializedVersion: 2
        time: 0.4166667
        value: 0.9350163
        inSlope: 1.01835
        outSlope: 1.01835
        tangentMode: 0
      - serializedVersion: 2
        time: 0.5
        value: 0.99270886
        inSlope: 0.3461556
        outSlope: 0.3461556
        tangentMode: 0
      - serializedVersion: 2
        time: 0.5833333
        value: 0.99270886
        inSlope: -0.3461556
        outSlope: -0.3461556
        tangentMode: 0
      - serializedVersion: 2
        time: 0.6666666
        value: 0.9350163
        inSlope: -1.0183499
        outSlope: -1.0183499
        tangentMode: 0
      - serializedVersion: 2
        time: 0.74999994
        value: 0.8229839
        inSlope: -1.631361
        outSlope: -1.631361
        tangentMode: 0
      - serializedVersion: 2
        time: 0.83333325
        value: 0.66312283
        inSlope: -2.1495633
        outSlope: -2.1495633
        tangentMode: 0
      - serializedVersion: 2
        time: 0.91666657
        value: 0.46472347
        inSlope: -2.5428433
        outSlope: -2.5428433
        tangentMode: 0
      - serializedVersion: 2
        time: 0.9999999
        value: 0.23931567
        inSlope: -2.7883403
        outSlope: -2.7883403
        tangentMode: 0
      - serializedVersion: 2
        time: 1.0833334
        value: -0.00000032584137
        inSlope: -2.8717866
        outSlope: -2.8717866
        tangentMode: 0
      m_PreInfinity: 2
      m_PostInfinity: 2
      m_RotationOrder: 4
    attribute: m_LocalRotation.z
    path: 
    classID: 4
    script: {fileID: 0}
  - curve:
      serializedVersion: 2
      m_Curve:
      - serializedVersion: 2
        time: 0
        value: -1
        inSlope: 0.3486979
        outSlope: 0.3486979
        tangentMode: 0
      - serializedVersion: 2
        time: 0.083333336
        value: -0.97094184
        inSlope: 0.68726385
        outSlope: 0.68726385
        tangentMode: 0
      - serializedVersion: 2
        time: 0.16666667
        value: -0.885456
        inSlope: 1.3345869
        outSlope: 1.3345869
        tangentMode: 0
      - serializedVersion: 2
        time: 0.25
        value: -0.7485107
        inSlope: 1.9043479
        outSlope: 1.9043479
        tangentMode: 0
      - serializedVersion: 2
        time: 0.33333334
        value: -0.5680647
        inSlope: 2.3634348
        outSlope: 2.3634348
        tangentMode: 0
      - serializedVersion: 2
        time: 0.4166667
        value: -0.35460487
        inSlope: 2.6851687
        outSlope: 2.6851687
        tangentMode: 0
      - serializedVersion: 2
        time: 0.5
        value: -0.120536566
        inSlope: 2.8508506
        outSlope: 2.8508506
        tangentMode: 0
      - serializedVersion: 2
        time: 0.5833333
        value: 0.120536774
        inSlope: 2.8508492
        outSlope: 2.8508492
        tangentMode: 0
      - serializedVersion: 2
        time: 0.6666666
        value: 0.35460484
        inSlope: 2.6851683
        outSlope: 2.6851683
        tangentMode: 0
      - serializedVersion: 2
        time: 0.74999994
        value: 0.5680647
        inSlope: 2.3634353
        outSlope: 2.3634353
        tangentMode: 0
      - serializedVersion: 2
        time: 0.83333325
        value: 0.7485106
        inSlope: 1.9043474
        outSlope: 1.9043474
        tangentMode: 0
      - serializedVersion: 2
        time: 0.91666657
        value: 0.88545585
        inSlope: 1.3345878
        outSlope: 1.3345878
        tangentMode: 0
      - serializedVersion: 2
        time: 0.9999999
        value: 0.97094184
        inSlope: 0.6872647
        outSlope: 0.6872647
        tangentMode: 0
      - serializedVersion: 2
        time: 1.0833334
        value: 1
        inSlope: 0.34869725
        outSlope: 0.34869725
        tangentMode: 0
      m_PreInfinity: 2
      m_PostInfinity: 2
      m_RotationOrder: 4
    attribute: m_LocalRotation.w
    path: 
    classID: 4
    script: {fileID: 0}
  m_EulerEditorCurves:
  - curve:
      serializedVersion: 2
      m_Curve:
      - serializedVersion: 2
        time: 0
        value: 0
        inSlope: 0
        outSlope: 0
        tangentMode: 34
      - serializedVersion: 2
        time: 1.0833334
        value: 0
        inSlope: 0
        outSlope: 0
        tangentMode: 34
      m_PreInfinity: 2
      m_PostInfinity: 2
      m_RotationOrder: 4
    attribute: localEulerAnglesBaked.x
    path: 
    classID: 4
    script: {fileID: 0}
  - curve:
      serializedVersion: 2
      m_Curve:
      - serializedVersion: 2
        time: 0
        value: 0
        inSlope: 0
        outSlope: 0
        tangentMode: 34
      - serializedVersion: 2
        time: 1.0833334
        value: 0
        inSlope: 0
        outSlope: 0
        tangentMode: 34
      m_PreInfinity: 2
      m_PostInfinity: 2
      m_RotationOrder: 4
    attribute: localEulerAnglesBaked.y
    path: 
    classID: 4
    script: {fileID: 0}
  - curve:
      serializedVersion: 2
      m_Curve:
      - serializedVersion: 2
        time: 0
        value: 0
        inSlope: -332.30768
        outSlope: -332.30768
        tangentMode: 34
      - serializedVersion: 2
        time: 1.0833334
        value: -360
        inSlope: -332.30768
        outSlope: -332.30768
        tangentMode: 34
      m_PreInfinity: 2
      m_PostInfinity: 2
      m_RotationOrder: 4
    attribute: localEulerAnglesBaked.z
    path: 
    classID: 4
    script: {fileID: 0}
  m_HasGenericRootTransform: 1
  m_HasMotionFloatCurves: 0
  m_GenerateMotionCurves: 0
  m_Events: []
